{
    "address": ":9100",
    "push_address": "127.0.0.1:9121",
    "database": "127.0.0.1",
    "authentication" : {
        "secret" : ""
    },
      "app":{
	    "name":""
    },
    "oss" : {
	    "AccessKeyId" : "",
	    "AccessKeySecret" : "",
	    "address" : "",
	    "BucketName" : "",
            "path" : "",
            "download" : ""
    },
    "log": {
	    "level": "",
	    "path": ""
    },
    "memcached": "",
    "release": ""
}

